{
  "cordova-plugin-googlemaps": {
    "source": {
      "type": "registry",
      "id": "cordova-plugin-googlemaps@^2.6.2"
    },
    "is_top_level": true,
    "variables": {
      "PLAY_SERVICES_VERSION": "15.0.1",
      "ANDROID_SUPPORT_V4_VERSION": "27.+",
      "LOCATION_WHEN_IN_USE_DESCRIPTION": "This app wants to get your location while this app runs only.",
      "LOCATION_ALWAYS_USAGE_DESCRIPTION": "This app wants to get your location always, even this app runs in background."
    }
  },
  "cordova-plugin-whitelist": {
    "source": {
      "type": "registry",
      "id": "cordova-plugin-whitelist@1.3.4"
    },
    "is_top_level": true,
    "variables": {}
  },
  "cordova-plugin-app-version": {
    "source": {
      "type": "registry",
      "id": "cordova-plugin-app-version@^0.1.9"
    },
    "is_top_level": true,
    "variables": {}
  },
  "cordova-plugin-appversion": {
    "source": {
      "type": "registry",
      "id": "cordova-plugin-appversion@1.0.0"
    },
    "is_top_level": false,
    "variables": {}
  },
  "phonegap-plugin-multidex": {
    "source": {
      "type": "registry",
      "id": "phonegap-plugin-multidex@~1.0.0"
    },
    "is_top_level": false,
    "variables": {}
  },
  "cordova-plugin-nativegeocoder": {
    "source": {
      "type": "registry",
      "id": "cordova-plugin-nativegeocoder@^3.2.2"
    },
    "is_top_level": true,
    "variables": {
      "LOCATION_WHEN_IN_USE_DESCRIPTION": "Use geocoder service"
    }
  },
  "cordova-plugin-networkinterface": {
    "source": {
      "type": "registry",
      "id": "cordova-plugin-networkinterface@^2.0.0"
    },
    "is_top_level": true,
    "variables": {}
  },
  "uk.co.workingedge.phonegap.plugin.launchnavigator": {
    "source": {
      "type": "registry",
      "id": "uk.co.workingedge.phonegap.plugin.launchnavigator@^5.0.4"
    },
    "is_top_level": true,
    "variables": {
      "GOOGLE_API_KEY_FOR_ANDROID": "AIzaSyCNT3eO1wPQHUhY_cmQ9N_9BkLzJ_GB9j8",
      "OKHTTP_VERSION": "3.12.0",
      "LOCATION_USAGE_DESCRIPTION": "This app requires access to your location for navigation purposes"
    }
  },
  "cordova-plugin-actionsheet": {
    "source": {
      "type": "registry",
      "id": "cordova-plugin-actionsheet@2"
    },
    "is_top_level": false,
    "variables": {}
  },
  "cordova-plugin-dialogs": {
    "source": {
      "type": "registry",
      "id": "cordova-plugin-dialogs@*"
    },
    "is_top_level": false,
    "variables": {}
  },
  "cordova-plugin-inappbrowser": {
    "source": {
      "type": "registry",
      "id": "cordova-plugin-inappbrowser@^3.1.0"
    },
    "is_top_level": true,
    "variables": {}
  },
  "cordova-plugin-file": {
    "source": {
      "type": "registry",
      "id": "cordova-plugin-file@^6.0.2"
    },
    "is_top_level": true,
    "variables": {}
  },
  "cordova-plugin-filepath": {
    "source": {
      "type": "registry",
      "id": "cordova-plugin-filepath@^1.5.6"
    },
    "is_top_level": true,
    "variables": {}
  },
  "cordova-plugin-file-transfer": {
    "source": {
      "type": "registry",
      "id": "cordova-plugin-file-transfer@^1.7.1"
    },
    "is_top_level": true,
    "variables": {}
  },
  "call-number": {
    "source": {
      "type": "registry",
      "id": "mx.ferreyra.callnumber@0.0.2"
    },
    "is_top_level": true,
    "variables": {}
  },
  "com.telerik.plugins.nativepagetransitions": {
    "source": {
      "type": "registry",
      "id": "com.telerik.plugins.nativepagetransitions@^0.6.5"
    },
    "is_top_level": true,
    "variables": {}
  },
  "cordova-plugin-tts": {
    "source": {
      "type": "registry",
      "id": "cordova-plugin-tts@^0.2.3"
    },
    "is_top_level": true,
    "variables": {}
  },
  "cordova-plugin-x-socialsharing": {
    "source": {
      "type": "registry",
      "id": "cordova-plugin-x-socialsharing@^5.4.7"
    },
    "is_top_level": true,
    "variables": {
      "ANDROID_SUPPORT_V4_VERSION": "24.1.1+",
      "PHOTO_LIBRARY_ADD_USAGE_DESCRIPTION": "This app requires photo library access to function properly.",
      "PHOTO_LIBRARY_USAGE_DESCRIPTION": "This app requires photo library access to function properly."
    }
  },
  "es6-promise-plugin": {
    "source": {
      "type": "registry",
      "id": "es6-promise-plugin@^4.1.0"
    },
    "is_top_level": false,
    "variables": {}
  },
  "cordova-sms-plugin": {
    "source": {
      "type": "registry",
      "id": "cordova-sms-plugin@^1.0.0"
    },
    "is_top_level": true,
    "variables": {}
  },
  "cordova-plugin-camera": {
    "source": {
      "type": "registry",
      "id": "cordova-plugin-camera@^4.1.0"
    },
    "is_top_level": true,
    "variables": {
      "ANDROID_SUPPORT_V4_VERSION": "27.+"
    }
  },
  "cordova-plugin-geolocation": {
    "source": {
      "type": "registry",
      "id": "cordova-plugin-geolocation@^4.0.2"
    },
    "is_top_level": true,
    "variables": {
      "GEOLOCATION_USAGE_DESCRIPTION": "To locate you"
    }
  },
  "cordova-plugin-splashscreen": {
    "source": {
      "type": "registry",
      "id": "cordova-plugin-splashscreen@^5.0.3"
    },
    "is_top_level": true,
    "variables": {}
  },
  "cordova-plugin-statusbar": {
    "source": {
      "type": "registry",
      "id": "cordova-plugin-statusbar@^2.4.3"
    },
    "is_top_level": true,
    "variables": {}
  },
  "phonegap-plugin-push": {
    "source": {
      "type": "registry",
      "id": "phonegap-plugin-push@2.2.3"
    },
    "is_top_level": true,
    "variables": {
      "ANDROID_SUPPORT_V13_VERSION": "27.+",
      "FCM_VERSION": "11.6.2"
    }
  },
  "cordova-support-google-services": {
    "source": {
      "type": "registry",
      "id": "cordova-support-google-services@~1.1.0"
    },
    "is_top_level": false,
    "variables": {}
  },
  "cordova-plugin-nativeaudio": {
    "source": {
      "type": "registry",
      "id": "cordova-plugin-nativeaudio@^3.0.9"
    },
    "is_top_level": true,
    "variables": {}
  },
  "cordova-plugin-ionic-keyboard": {
    "source": {
      "type": "registry",
      "id": "cordova-plugin-ionic-keyboard@^2.1.2"
    },
    "is_top_level": true,
    "variables": {}
  },
  "cordova-plugin-network-information": {
    "source": {
      "type": "registry",
      "id": "cordova-plugin-network-information@^2.0.1"
    },
    "is_top_level": true,
    "variables": {}
  },
  "cordova-plugin-ionic-webview": {
    "source": {
      "type": "registry",
      "id": "cordova-plugin-ionic-webview@^2.1.4"
    },
    "is_top_level": true,
    "variables": {
      "ANDROID_SUPPORT_ANNOTATIONS_VERSION": "27.+"
    }
  },
  "cordova-plugin-ionic": {
    "source": {
      "type": "registry",
      "id": "cordova-plugin-ionic@^5.2.7"
    },
    "is_top_level": true,
    "variables": {
      "APP_ID": "79b5c21f",
      "CHANNEL_NAME": "Master",
      "UPDATE_METHOD": "auto",
      "UPDATE_API": "https://api.ionicjs.com",
      "MAX_STORE": "2",
      "MIN_BACKGROUND_DURATION": "30"
    }
  },
  "cordova-plugin-device": {
    "source": {
      "type": "registry",
      "id": "cordova-plugin-device@^2.0.3"
    },
    "is_top_level": true,
    "variables": {}
  },
  "cordova-plugin-add-swift-support": {
    "source": {
      "type": "registry",
      "id": "cordova-plugin-add-swift-support@2.0.2"
    },
    "is_top_level": false,
    "variables": {}
  }
}