<?xml version="1.0" standalone="no"?>
<!DOCTYPE svg PUBLIC "-//W3C//DTD SVG 20010904//EN"
 "http://www.w3.org/TR/2001/REC-SVG-20010904/DTD/svg10.dtd">
<svg version="1.0" xmlns="http://www.w3.org/2000/svg"
 width="262.000000pt" height="500.000000pt" viewBox="0 0 262.000000 500.000000"
 preserveAspectRatio="xMidYMid meet">
<metadata>
Created by potrace 1.15, written by Peter Selinger 2001-2017
</metadata>
<g transform="translate(0.000000,500.000000) scale(0.100000,-0.100000)"
fill="#000000" stroke="none">
<path d="M937 3673 c-4 -3 -7 -26 -7 -50 0 -23 -4 -43 -10 -43 -6 0 -10 -35
-10 -84 0 -47 5 -88 10 -91 6 -3 10 -37 10 -76 l0 -69 95 0 c88 0 95 -1 95
-20 0 -13 -7 -20 -20 -20 -19 0 -20 -7 -22 -227 -1 -126 -3 -194 -5 -153 -5
124 -3 121 -76 118 l-62 -3 -3 -85 c-2 -47 -7 -89 -12 -94 -6 -6 -10 -59 -10
-118 0 -107 0 -108 25 -114 14 -3 53 -4 85 -2 l60 4 0 -33 0 -33 -56 0 -56 0
4 -145 3 -145 -43 0 c-61 0 -64 -11 -60 -292 3 -221 2 -238 -14 -238 -15 0
-18 -10 -18 -65 l0 -65 80 0 c73 0 80 -2 80 -20 0 -11 -4 -20 -10 -20 -5 0
-10 -22 -10 -50 0 -27 4 -50 9 -50 6 0 11 -15 13 -32 l3 -33 148 -3 147 -3 0
36 0 35 204 0 c207 0 231 4 205 36 -9 11 -9 18 -1 26 20 20 13 38 -13 38 -14
0 -25 4 -25 10 0 15 36 30 74 30 l36 0 0 65 c0 61 -1 65 -22 65 l-23 0 3 242
c2 133 0 253 -3 265 -5 20 -12 23 -55 23 -38 0 -50 4 -50 15 0 8 7 15 15 15
13 0 15 21 15 130 l0 130 -60 0 -60 0 0 33 0 33 60 -4 c32 -2 71 -1 86 2 l27
7 -7 186 c-4 103 -12 195 -17 205 -8 14 -22 18 -69 18 -69 0 -68 2 -73 -115
-2 -38 -4 30 -5 153 -2 215 -3 222 -22 222 -13 0 -20 7 -20 20 0 19 7 20 94
20 l94 0 6 143 c7 151 -2 268 -20 274 -8 3 -15 -15 -19 -47 l-7 -50 -38 0 -39
0 -3 47 c-4 65 -25 67 -34 4 l-7 -51 -38 0 -38 0 -3 47 c-4 65 -25 67 -34 4
l-7 -51 -38 0 -39 0 0 44 c0 41 -13 66 -27 52 -3 -3 -8 -25 -10 -51 -6 -45 -6
-45 -44 -45 -38 0 -39 1 -39 38 0 20 -5 44 -10 52 -9 13 -11 13 -20 0 -5 -8
-10 -32 -10 -52 0 -38 0 -38 -40 -38 -40 0 -40 0 -40 38 0 20 -4 43 -9 51 -15
24 -31 1 -31 -45 l0 -44 -40 0 c-37 0 -40 2 -40 28 0 54 -15 84 -33 65z m753
-138 l0 -35 -380 0 -380 0 0 35 0 35 380 0 380 0 0 -35z m0 -80 l0 -35 -380 0
-380 0 0 35 0 35 380 0 380 0 0 -35z m-10 -115 l0 -60 -370 0 -370 0 0 60 0
60 370 0 370 0 0 -60z m-216 -97 c4 -9 9 -65 13 -125 l6 -108 -173 0 -173 0 6
103 c10 161 -6 147 167 147 129 0 149 -2 154 -17z m6 -618 c0 -256 -2 -295
-15 -295 -8 0 -15 -5 -15 -11 0 -7 8 -9 23 -4 12 4 49 10 82 12 l60 4 -40 -35
c-32 -28 -49 -36 -85 -37 -25 -1 -36 -3 -25 -6 11 -2 30 -6 43 -9 l24 -5 -5
-172 c-2 -95 -10 -217 -17 -273 l-14 -101 -56 -11 c-72 -15 -154 -15 -235 0
-63 12 -65 13 -65 44 0 17 -7 75 -15 130 -19 125 -20 367 -2 382 6 6 26 12 42
15 23 3 20 4 -15 6 -36 1 -53 9 -85 37 l-40 36 60 -5 c33 -2 70 -8 83 -12 14
-5 22 -3 22 4 0 6 -7 11 -15 11 -13 0 -15 39 -15 295 l0 295 160 0 160 0 0
-295z m-410 36 c0 -109 -1 -111 -65 -111 -64 0 -65 2 -65 111 l0 99 65 0 65 0
0 -99z m630 0 c0 -109 -1 -111 -65 -111 -64 0 -65 2 -65 111 l0 99 65 0 65 0
0 -99z m-42 -308 c2 -79 -1 -113 -9 -113 -7 0 -10 18 -7 53 l3 52 -72 3 c-40
2 -73 7 -73 12 0 6 11 10 25 10 23 0 25 4 25 43 0 24 3 47 7 51 4 4 28 6 53 4
l45 -3 3 -112z m-595 -108 l37 -19 0 -128 0 -128 -45 0 -45 0 0 151 c0 83 3
149 8 147 4 -2 24 -12 45 -23z m567 -94 c0 -65 -3 -133 -6 -150 -6 -28 -10
-31 -45 -31 l-39 0 0 128 0 128 38 22 c20 12 40 22 45 22 4 0 7 -53 7 -119z
m56 -48 c46 -69 62 -273 32 -403 l-13 -55 -98 -3 c-53 -1 -97 1 -97 5 0 5 29
68 65 141 l65 133 0 111 c0 119 6 129 46 71z m-694 -35 c1 -35 2 -83 3 -108 1
-35 17 -78 72 -187 l71 -143 -98 0 -99 0 -11 39 c-34 128 -32 285 5 390 32 90
54 94 57 9z m708 -488 l0 -40 -130 0 -130 0 0 40 0 40 130 0 130 0 0 -40z
m-272 18 c-4 -10 -66 -15 -244 -19 -131 -4 -254 -10 -271 -14 -31 -7 -33 -5
-33 19 l0 26 276 0 c216 0 275 -3 272 -12z"/>
</g>
</svg>
